﻿區域別, 總    計,0,1,2,3,4,5～9,10～14,15 ～ 19,20 ～ 24,25 ～ 29,30 ～ 34,35 ～ 39,40 ～ 44,45 ～ 49,50 ～ 54,55 ～ 59,60 ～ 64,65 ～ 69,70 ～ 74,75～79,80～ 84,85～89,90～94,95～99,100+,驗算

總計,11705009.0,103806.0,106512.0,112827.0,113625.0,96275.0,520452.0,630628.0,785213.0,836675.0,817328.0,964222.0,993302.0,882390.0,915429.0,927014.0,846149.0,719006.0,440201.0,318587.0,243370.0,173975.0,112248.0,37167.0,7161.0,1447.0
新北市,1951547.0,17703.0,17977.0,18489.0,18242.0,15329.0,86005.0,100386.0,128073.0,143962.0,142182.0,168131.0,173903.0,153098.0,151933.0,155421.0,144578.0,122913.0,72567.0,47105.0,30447.0,21114.0,14898.0,5538.0,1245.0,308.0
臺北市,1295549.0,14456.0,15380.0,16156.0,16075.0,13262.0,57160.0,64819.0,77076.0,78233.0,78304.0,103394.0,109745.0,95586.0,96153.0,97715.0,95530.0,89092.0,59363.0,39705.0,29090.0,22717.0,17130.0,7326.0,1691.0,391.0
桃園市,1042813.0,9997.0,9903.0,10416.0,10817.0,9454.0,54521.0,65406.0,77868.0,79759.0,74768.0,88257.0,91526.0,82076.0,82197.0,79398.0,68227.0,53538.0,30784.0,20752.0,14771.0,13222.0,11268.0,3237.0,545.0,106.0
臺中市,1352012.0,12912.0,13465.0,14473.0,14776.0,12521.0,66945.0,80226.0,100382.0,103591.0,100266.0,116066.0,116385.0,99992.0,103813.0,102473.0,90551.0,75173.0,44359.0,30457.0,22707.0,15880.0,10619.0,3339.0,554.0,87.0
臺南市,943937.0,7641.0,7782.0,8585.0,8824.0,7304.0,39400.0,47501.0,60709.0,65583.0,67016.0,78928.0,80804.0,68317.0,73580.0,78200.0,72620.0,60125.0,35846.0,26391.0,21382.0,15485.0,8834.0,2548.0,461.0,71.0
高雄市,1381993.0,11126.0,11355.0,12077.0,12197.0,10338.0,57205.0,70653.0,89990.0,97226.0,95718.0,113618.0,120331.0,108615.0,110971.0,109459.0,101409.0,90042.0,56064.0,39512.0,27609.0,19297.0,12611.0,3836.0,636.0,98.0
臺灣省,3664683.0,29194.0,29878.0,31883.0,31996.0,27529.0,157034.0,199288.0,246923.0,262177.0,253398.0,290100.0,295252.0,269210.0,290544.0,297734.0,266656.0,223343.0,138708.0,112768.0,95793.0,65240.0,36517.0,11172.0,1975.0,371.0
宜蘭縣,232516.0,1697.0,1806.0,1951.0,1945.0,1701.0,9514.0,12256.0,16144.0,17613.0,16710.0,17838.0,17578.0,16795.0,18773.0,19045.0,17037.0,14060.0,8401.0,7523.0,6520.0,4310.0,2436.0,695.0,139.0,29.0
新竹縣,276331.0,2826.0,2982.0,3221.0,3379.0,2934.0,15948.0,17019.0,19354.0,19637.0,17623.0,21534.0,24484.0,22890.0,21797.0,20613.0,17152.0,13370.0,8264.0,7271.0,6256.0,4262.0,2568.0,765.0,156.0,26.0
苗栗縣,291481.0,2855.0,2936.0,3023.0,2830.0,2272.0,12652.0,15818.0,18781.0,21028.0,20557.0,23855.0,22930.0,20890.0,21902.0,22977.0,21004.0,17189.0,10692.0,9261.0,8168.0,5631.0,3124.0,914.0,164.0,28.0
彰化縣,659651.0,6141.0,5814.0,6091.0,6028.0,5051.0,28956.0,37273.0,45494.0,48315.0,49446.0,56246.0,54710.0,46364.0,48164.0,50754.0,46412.0,38868.0,24352.0,19677.0,16904.0,11290.0,5473.0,1566.0,231.0,31.0
南投縣,262639.0,1742.0,1788.0,1905.0,1934.0,1700.0,9966.0,13555.0,17329.0,19423.0,18725.0,20508.0,19625.0,17823.0,20807.0,22147.0,20438.0,17365.0,10718.0,8638.0,7539.0,5180.0,2805.0,819.0,141.0,19.0
雲林縣,365364.0,2489.0,2603.0,2832.0,2877.0,2462.0,14670.0,19472.0,23787.0,23629.0,23830.0,28069.0,29519.0,26760.0,30094.0,30584.0,26778.0,23217.0,15412.0,13047.0,11352.0,7335.0,3481.0,915.0,133.0,17.0
嘉義縣,272002.0,1517.0,1596.0,1762.0,1772.0,1521.0,9127.0,12973.0,17212.0,18327.0,17995.0,20373.0,20288.0,19499.0,22821.0,24711.0,21875.0,18225.0,11380.0,9742.0,8901.0,6210.0,3108.0,887.0,158.0,22.0
屏東縣,432756.0,2669.0,2754.0,3054.0,3116.0,2707.0,16086.0,21681.0,28952.0,31203.0,29951.0,33594.0,34909.0,31475.0,35449.0,36560.0,33096.0,28681.0,17723.0,14167.0,11738.0,7646.0,4126.0,1185.0,192.0,42.0
臺東縣,115785.0,798.0,905.0,951.0,925.0,812.0,4725.0,6020.0,7526.0,8104.0,7681.0,8725.0,8899.0,9119.0,10076.0,10028.0,8717.0,6976.0,4470.0,3502.0,2813.0,1964.0,1405.0,515.0,102.0,27.0
花蓮縣,169830.0,1348.0,1395.0,1430.0,1427.0,1313.0,6882.0,8710.0,11389.0,12247.0,11314.0,13261.0,13316.0,12556.0,13831.0,13830.0,12960.0,11032.0,6670.0,5067.0,3880.0,2883.0,2128.0,763.0,159.0,39.0
澎湖縣,52580.0,463.0,473.0,485.0,443.0,333.0,1717.0,2319.0,3363.0,4451.0,3752.0,4267.0,4235.0,3934.0,4197.0,4282.0,3895.0,3069.0,1954.0,1504.0,1408.0,1139.0,649.0,204.0,41.0,3.0
基隆市,187273.0,1109.0,1094.0,1182.0,1183.0,1077.0,7069.0,9348.0,12693.0,14139.0,13224.0,14118.0,14366.0,14313.0,15750.0,16596.0,15320.0,12691.0,7276.0,5183.0,4000.0,2756.0,1898.0,704.0,146.0,38.0
新竹市,214315.0,2500.0,2654.0,2852.0,2911.0,2528.0,13068.0,13929.0,14678.0,14205.0,13622.0,17667.0,20155.0,17497.0,16653.0,15435.0,12928.0,10831.0,6559.0,4575.0,3451.0,2582.0,2048.0,811.0,141.0,35.0
嘉義市,132160.0,1040.0,1078.0,1144.0,1226.0,1118.0,6654.0,8915.0,10221.0,9856.0,8968.0,10045.0,10238.0,9295.0,10230.0,10172.0,9044.0,7769.0,4837.0,3611.0,2863.0,2052.0,1268.0,429.0,72.0,15.0
福建省,72475.0,777.0,772.0,748.0,698.0,538.0,2182.0,2349.0,4192.0,6144.0,5676.0,5728.0,5356.0,5496.0,6238.0,6614.0,6578.0,4780.0,2510.0,1897.0,1571.0,1020.0,371.0,171.0,54.0,15.0
金門縣,65313.0,703.0,699.0,679.0,627.0,486.0,1933.0,2096.0,3795.0,5601.0,5145.0,5127.0,4779.0,4895.0,5604.0,5948.0,5913.0,4301.0,2261.0,1753.0,1463.0,958.0,336.0,153.0,46.0,12.0
連江縣,7162.0,74.0,73.0,69.0,71.0,52.0,249.0,253.0,397.0,543.0,531.0,601.0,577.0,601.0,634.0,666.0,665.0,479.0,249.0,144.0,108.0,62.0,35.0,18.0,8.0,3.0
