區域別,總計,0,1,2,3,4,5~9,10~14,15~19,20~24,25~29,30~34,35~39,40~44,45~49,50~54,55~59,60~64,65~69,70~74,75~79,80~84,85~89,90~94,95-99,100+
指定首行總計,5364,79,82,70,63,49,197,202,324,374,387,472,499,424,389,438,437,298,212,84,95,93,55,30,11,0
連江縣,5364.5,79.5,82,70,62.5,49,197,202,324,374,387,472,499.5,423.5,389.5,438,437,298,212.5,83.5,95,93,54.5,30.5,11,0
南竿鄉,3213.5,55,50,42.5,36.5,28.5,132,132,209.5,225.5,235.5,284,303.5,240,228.5,262,256.5,157,118.5,50,50.5,56,32,21,7,0
北竿鄉,1043.5,10.5,16,12.5,14,10,27.5,41,56.5,69,65.5,94.5,99.5,95.5,74,76.5,87,72.5,51.5,16,18,17.5,11,5.5,2,0
莒光鄉,606,6.5,7.5,7.5,4.5,3,19,13,28.5,36.5,44,52,47,58.5,47.5,50,57.5,44.5,24,11.5,19,10.5,9,3,2,0
東引鄉,501.5,7.5,8.5,7.5,7.5,7.5,18.5,16,29.5,43,42,41.5,49.5,29.5,39.5,49.5,36,24,18.5,6,7.5,9,2.5,1,0,0
